
CalculationMode = nt
Verbose = 40

MeshType = log1
MeshStartingPoint = 1e-5
MeshOutmostPoint = 100

NumericalTests = integration
%TestFunctions
 "coulomb_potential" | inverse     | -1.0 |  0.0 | 1.0
 "h_density"         | exponential |  4.0 | -2.0 | 0.0
%
